info face="Comic Sans MS" size=80 bold=0 italic=0 charset="" unicode=1 stretchH=100 smooth=1 aa=4 padding=0,0,0,0 spacing=1,1 outline=3
common lineHeight=80 base=63 scaleW=1024 scaleH=512 pages=1 packed=0 alphaChnl=1 redChnl=0 greenChnl=0 blueChnl=0
page id=0 file="comic-80_0.png"
chars count=96
char id=32   x=157   y=169   width=7     height=7     xoffset=-3    yoffset=76    xadvance=17    page=0  chnl=15
char id=33   x=861   y=0     width=13    height=53    xoffset=0     yoffset=15    xadvance=13    page=0  chnl=15
char id=34   x=953   y=104   width=23    height=25    xoffset=0     yoffset=15    xadvance=24    page=0  chnl=15
char id=35   x=951   y=0     width=54    height=52    xoffset=-3    yoffset=15    xadvance=48    page=0  chnl=15
char id=36   x=0     y=0     width=38    height=66    xoffset=-1    yoffset=11    xadvance=39    page=0  chnl=15
char id=37   x=398   y=0     width=48    height=54    xoffset=1     yoffset=13    xadvance=47    page=0  chnl=15
char id=38   x=609   y=0     width=40    height=53    xoffset=-1    yoffset=16    xadvance=37    page=0  chnl=15
char id=39   x=0     y=171   width=12    height=21    xoffset=4     yoffset=13    xadvance=22    page=0  chnl=15
char id=40   x=79    y=0     width=23    height=64    xoffset=0     yoffset=14    xadvance=21    page=0  chnl=15
char id=41   x=103   y=0     width=23    height=64    xoffset=0     yoffset=14    xadvance=21    page=0  chnl=15
char id=42   x=890   y=106   width=32    height=29    xoffset=-2    yoffset=15    xadvance=30    page=0  chnl=15
char id=43   x=858   y=106   width=31    height=30    xoffset=-2    yoffset=30    xadvance=27    page=0  chnl=15
char id=44   x=1008  y=104   width=15    height=21    xoffset=2     yoffset=55    xadvance=15    page=0  chnl=15
char id=45   x=131   y=169   width=25    height=11    xoffset=0     yoffset=42    xadvance=23    page=0  chnl=15
char id=46   x=70    y=171   width=14    height=14    xoffset=0     yoffset=55    xadvance=14    page=0  chnl=15
char id=47   x=334   y=0     width=31    height=55    xoffset=-1    yoffset=14    xadvance=29    page=0  chnl=15
char id=48   x=791   y=54    width=38    height=51    xoffset=-2    yoffset=16    xadvance=35    page=0  chnl=15
char id=49   x=140   y=118   width=25    height=50    xoffset=1     yoffset=16    xadvance=25    page=0  chnl=15
char id=50   x=73    y=119   width=33    height=50    xoffset=1     yoffset=16    xadvance=35    page=0  chnl=15
char id=51   x=39    y=120   width=33    height=50    xoffset=1     yoffset=17    xadvance=35    page=0  chnl=15
char id=52   x=751   y=54    width=39    height=51    xoffset=-2    yoffset=16    xadvance=35    page=0  chnl=15
char id=53   x=182   y=62    width=36    height=52    xoffset=0     yoffset=16    xadvance=35    page=0  chnl=15
char id=54   x=256   y=62    width=35    height=52    xoffset=0     yoffset=16    xadvance=35    page=0  chnl=15
char id=55   x=711   y=54    width=39    height=51    xoffset=-2    yoffset=17    xadvance=35    page=0  chnl=15
char id=56   x=869   y=54    width=35    height=51    xoffset=0     yoffset=17    xadvance=35    page=0  chnl=15
char id=57   x=691   y=0     width=36    height=53    xoffset=0     yoffset=16    xadvance=35    page=0  chnl=15
char id=58   x=792   y=106   width=13    height=35    xoffset=2     yoffset=28    xadvance=17    page=0  chnl=15
char id=59   x=320   y=110   width=16    height=44    xoffset=-1    yoffset=28    xadvance=17    page=0  chnl=15
char id=60   x=833   y=106   width=24    height=31    xoffset=-3    yoffset=30    xadvance=21    page=0  chnl=15
char id=61   x=923   y=105   width=29    height=27    xoffset=-1    yoffset=31    xadvance=29    page=0  chnl=15
char id=62   x=806   y=106   width=26    height=33    xoffset=-2    yoffset=28    xadvance=21    page=0  chnl=15
char id=63   x=107   y=118   width=32    height=50    xoffset=-2    yoffset=18    xadvance=30    page=0  chnl=15
char id=64   x=280   y=0     width=53    height=56    xoffset=0     yoffset=14    xadvance=53    page=0  chnl=15
char id=65   x=212   y=115   width=41    height=49    xoffset=0     yoffset=18    xadvance=42    page=0  chnl=15
char id=66   x=292   y=57    width=35    height=52    xoffset=2     yoffset=15    xadvance=36    page=0  chnl=15
char id=67   x=0     y=120   width=38    height=50    xoffset=-1    yoffset=17    xadvance=34    page=0  chnl=15
char id=68   x=650   y=0     width=40    height=53    xoffset=2     yoffset=16    xadvance=41    page=0  chnl=15
char id=69   x=447   y=0     width=37    height=54    xoffset=0     yoffset=15    xadvance=35    page=0  chnl=15
char id=70   x=485   y=0     width=35    height=54    xoffset=1     yoffset=15    xadvance=34    page=0  chnl=15
char id=71   x=566   y=0     width=42    height=53    xoffset=-1    yoffset=15    xadvance=39    page=0  chnl=15
char id=72   x=521   y=0     width=44    height=53    xoffset=1     yoffset=16    xadvance=44    page=0  chnl=15
char id=73   x=254   y=115   width=34    height=49    xoffset=-1    yoffset=18    xadvance=31    page=0  chnl=15
char id=74   x=100   y=65    width=40    height=52    xoffset=-1    yoffset=17    xadvance=38    page=0  chnl=15
char id=75   x=219   y=62    width=36    height=52    xoffset=2     yoffset=17    xadvance=35    page=0  chnl=15
char id=76   x=728   y=0     width=34    height=53    xoffset=-1    yoffset=16    xadvance=31    page=0  chnl=15
char id=77   x=0     y=67    width=52    height=52    xoffset=0     yoffset=16    xadvance=50    page=0  chnl=15
char id=78   x=53    y=66    width=46    height=52    xoffset=0     yoffset=16    xadvance=45    page=0  chnl=15
char id=79   x=533   y=54    width=47    height=51    xoffset=0     yoffset=17    xadvance=45    page=0  chnl=15
char id=80   x=435   y=55    width=32    height=52    xoffset=-1    yoffset=15    xadvance=29    page=0  chnl=15
char id=81   x=181   y=0     width=54    height=61    xoffset=-1    yoffset=17    xadvance=50    page=0  chnl=15
char id=82   x=830   y=54    width=38    height=51    xoffset=0     yoffset=16    xadvance=36    page=0  chnl=15
char id=83   x=981   y=53    width=40    height=50    xoffset=0     yoffset=18    xadvance=39    page=0  chnl=15
char id=84   x=166   y=117   width=45    height=49    xoffset=0     yoffset=17    xadvance=39    page=0  chnl=15
char id=85   x=939   y=53    width=41    height=50    xoffset=1     yoffset=17    xadvance=42    page=0  chnl=15
char id=86   x=141   y=64    width=40    height=52    xoffset=1     yoffset=16    xadvance=37    page=0  chnl=15
char id=87   x=889   y=0     width=61    height=52    xoffset=0     yoffset=17    xadvance=59    page=0  chnl=15
char id=88   x=581   y=54    width=44    height=51    xoffset=-2    yoffset=17    xadvance=41    page=0  chnl=15
char id=89   x=670   y=54    width=40    height=51    xoffset=-3    yoffset=17    xadvance=36    page=0  chnl=15
char id=90   x=626   y=54    width=43    height=51    xoffset=-2    yoffset=17    xadvance=39    page=0  chnl=15
char id=91   x=236   y=0     width=21    height=61    xoffset=1     yoffset=17    xadvance=21    page=0  chnl=15
char id=92   x=830   y=0     width=30    height=53    xoffset=1     yoffset=17    xadvance=31    page=0  chnl=15
char id=93   x=258   y=0     width=21    height=61    xoffset=1     yoffset=17    xadvance=21    page=0  chnl=15
char id=94   x=977   y=104   width=30    height=22    xoffset=2     yoffset=13    xadvance=33    page=0  chnl=15
char id=95   x=85    y=170   width=45    height=12    xoffset=-4    yoffset=64    xadvance=36    page=0  chnl=15
char id=96   x=50    y=171   width=19    height=20    xoffset=1     yoffset=13    xadvance=31    page=0  chnl=15
char id=97   x=529   y=108   width=34    height=38    xoffset=-2    yoffset=30    xadvance=29    page=0  chnl=15
char id=98   x=400   y=55    width=34    height=52    xoffset=1     yoffset=15    xadvance=34    page=0  chnl=15
char id=99   x=662   y=106   width=31    height=38    xoffset=-1    yoffset=30    xadvance=29    page=0  chnl=15
char id=100  x=328   y=57    width=35    height=52    xoffset=-1    yoffset=15    xadvance=33    page=0  chnl=15
char id=101  x=723   y=106   width=35    height=37    xoffset=-1    yoffset=30    xadvance=31    page=0  chnl=15
char id=102  x=366   y=0     width=31    height=55    xoffset=-1    yoffset=15    xadvance=29    page=0  chnl=15
char id=103  x=905   y=53    width=33    height=51    xoffset=-2    yoffset=31    xadvance=30    page=0  chnl=15
char id=104  x=763   y=0     width=33    height=53    xoffset=0     yoffset=15    xadvance=33    page=0  chnl=15
char id=105  x=1006  y=0     width=14    height=49    xoffset=1     yoffset=17    xadvance=16    page=0  chnl=15
char id=106  x=39    y=0     width=26    height=65    xoffset=-3    yoffset=18    xadvance=23    page=0  chnl=15
char id=107  x=468   y=55    width=32    height=52    xoffset=1     yoffset=15    xadvance=31    page=0  chnl=15
char id=108  x=875   y=0     width=13    height=53    xoffset=1     yoffset=14    xadvance=15    page=0  chnl=15
char id=109  x=337   y=110   width=46    height=42    xoffset=0     yoffset=28    xadvance=44    page=0  chnl=15
char id=110  x=454   y=108   width=31    height=39    xoffset=0     yoffset=29    xadvance=30    page=0  chnl=15
char id=111  x=564   y=106   width=32    height=38    xoffset=-1    yoffset=30    xadvance=30    page=0  chnl=15
char id=112  x=797   y=0     width=32    height=53    xoffset=0     yoffset=29    xadvance=30    page=0  chnl=15
char id=113  x=501   y=55    width=31    height=52    xoffset=-2    yoffset=30    xadvance=29    page=0  chnl=15
char id=114  x=694   y=106   width=28    height=38    xoffset=0     yoffset=30    xadvance=27    page=0  chnl=15
char id=115  x=384   y=109   width=31    height=41    xoffset=-2    yoffset=27    xadvance=27    page=0  chnl=15
char id=116  x=289   y=115   width=30    height=48    xoffset=-2    yoffset=20    xadvance=27    page=0  chnl=15
char id=117  x=630   y=106   width=31    height=38    xoffset=-1    yoffset=30    xadvance=29    page=0  chnl=15
char id=118  x=759   y=106   width=32    height=37    xoffset=-2    yoffset=30    xadvance=27    page=0  chnl=15
char id=119  x=486   y=108   width=42    height=38    xoffset=-1    yoffset=30    xadvance=39    page=0  chnl=15
char id=120  x=416   y=108   width=37    height=39    xoffset=-2    yoffset=28    xadvance=33    page=0  chnl=15
char id=121  x=364   y=56    width=35    height=52    xoffset=-3    yoffset=30    xadvance=29    page=0  chnl=15
char id=122  x=597   y=106   width=32    height=38    xoffset=0     yoffset=30    xadvance=30    page=0  chnl=15
char id=123  x=127   y=0     width=26    height=63    xoffset=-3    yoffset=14    xadvance=21    page=0  chnl=15
char id=124  x=66    y=0     width=12    height=65    xoffset=6     yoffset=11    xadvance=24    page=0  chnl=15
char id=125  x=154   y=0     width=26    height=63    xoffset=-3    yoffset=14    xadvance=21    page=0  chnl=15
char id=126  x=13    y=171   width=36    height=20    xoffset=-1    yoffset=33    xadvance=34    page=0  chnl=15
char id=160  x=165   y=169   width=7     height=7     xoffset=-3    yoffset=76    xadvance=17    page=0  chnl=15
